{
  "implemented": true,
  "name": "Shuckle",
  "nationalPokedexNumber": 213,
  "primaryType": "bug",
  "secondaryType": "rock",
  "abilities": [
    "sturdy",
    "gluttony",
    "h:contrary"
  ],
  "baseStats": {
    "hp": 20,
    "attack": 10,
    "defence": 230,
    "special_attack": 10,
    "special_defence": 230,
    "speed": 5
  },
  "catchRate": 190,
  "maleRatio": 0.5,
  "shoulderMountable": false,
  "baseExperienceYield": 177,
  "experienceGroup": "medium_slow",
  "eggCycles": 20,
  "eggGroups": [
    "bug"
  ],
  "behaviour": {
    "moving": {
      "walk": {
        "walkSpeed": 0.2
      }
    },
    "resting": {
      "canSleep": true,
      "willSleepOnBed": false,
      "depth": "normal",
      "light": "0-4"
    }
  },
  "moves": [
    "1:bide",
    "1:constrict",
    "1:withdraw",
    "1:wrap",
    "5:encore",
    "5:rollout",
    "10:strugglebug",
    "15:rockthrow",
    "20:safeguard",
    "25:rest",
    "30:bugbite",
    "35:guardsplit",
    "35:powersplit",
    "40:rockslide",
    "45:gastroacid",
    "50:stickyweb",
    "55:powertrick",
    "60:stoneedge",
    "65:shellsmash",
    "egg:acid",
    "egg:acupressure",
    "egg:covet",
    "egg:defensecurl",
    "egg:finalgambit",
    "egg:helpinghand",
    "egg:infestation",
    "egg:knockoff",
    "egg:mudslap",
    "egg:rockblast",
    "egg:sandtomb",
    "egg:sweetscent",
    "egg:toxic",
    "tm:attract",
    "tm:bodyslam",
    "tm:bulldoze",
    "tm:captivate",
    "tm:confide",
    "tm:dig",
    "tm:doubleteam",
    "tm:earthpower",
    "tm:earthquake",
    "tm:encore",
    "tm:endure",
    "tm:facade",
    "tm:flash",
    "tm:frustration",
    "tm:gyroball",
    "tm:helpinghand",
    "tm:hiddenpower",
    "tm:infestation",
    "tm:irondefense",
    "tm:mudshot",
    "tm:naturalgift",
    "tm:protect",
    "tm:rest",
    "tm:return",
    "tm:reversal",
    "tm:rockblast",
    "tm:rockpolish",
    "tm:rockslide",
    "tm:rocksmash",
    "tm:rocktomb",
    "tm:round",
    "tm:safeguard",
    "tm:sandstorm",
    "tm:sandtomb",
    "tm:secretpower",
    "tm:sleeptalk",
    "tm:sludgebomb",
    "tm:sludgewave",
    "tm:smackdown",
    "tm:snore",
    "tm:stealthrock",
    "tm:stoneedge",
    "tm:strength",
    "tm:strugglebug",
    "tm:substitute",
    "tm:sunnyday",
    "tm:swagger",
    "tm:toxic",
    "tm:venoshock",
    "tutor:afteryou",
    "tutor:ancientpower",
    "tutor:attract",
    "tutor:bide",
    "tutor:bind",
    "tutor:bodyslam",
    "tutor:bugbite",
    "tutor:constrict",
    "tutor:curse",
    "tutor:defensecurl",
    "tutor:dig",
    "tutor:doubleedge",
    "tutor:doubleteam",
    "tutor:earthpower",
    "tutor:earthquake",
    "tutor:encore",
    "tutor:endure",
    "tutor:flash",
    "tutor:frustration",
    "tutor:gastroacid",
    "tutor:headbutt",
    "tutor:helpinghand",
    "tutor:hiddenpower",
    "tutor:knockoff",
    "tutor:meteorbeam",
    "tutor:mimic",
    "tutor:mudslap",
    "tutor:protect",
    "tutor:rest",
    "tutor:return",
    "tutor:rockslide",
    "tutor:rocksmash",
    "tutor:rollout",
    "tutor:safeguard",
    "tutor:sandstorm",
    "tutor:shellsmash",
    "tutor:skittersmack",
    "tutor:sleeptalk",
    "tutor:sludgebomb",
    "tutor:snore",
    "tutor:stealthrock",
    "tutor:steelroller",
    "tutor:strength",
    "tutor:stringshot",
    "tutor:substitute",
    "tutor:sunnyday",
    "tutor:swagger",
    "tutor:sweetscent",
    "tutor:toxic",
    "tutor:withdraw",
    "tutor:wrap"
  ],
  "labels": [
    "gen2"
  ],
  "pokedex": [
    "cobblemon.species.shuckle.desc"
  ],
  "evolutions": [],
  "baseScale": 0.5,
  "hitbox": {
    "width": 1,
    "height": 1,
    "fixed": false
  },
  "baseFriendship": 50,
  "evYield": {
    "hp": 0,
    "attack": 0,
    "defence": 1,
    "special_attack": 0,
    "special_defence": 1,
    "speed": 0
  },
  "height": 6,
  "weight": 205,
  "aspects": [],
  "cannotDynamax": false
}