{
  "implemented": true,
  "name": "Sigilyph",
  "nationalPokedexNumber": 561,
  "primaryType": "psychic",
  "secondaryType": "flying",
  "abilities": [
    "wonderskin",
    "magicguard",
    "h:tintedlens"
  ],
  "baseStats": {
    "hp": 72,
    "attack": 58,
    "defence": 80,
    "special_attack": 103,
    "special_defence": 80,
    "speed": 97
  },
  "behaviour": {
    "moving": {
      "fly": {
        "canFly": true
      }
    },
    "resting": {
      "canSleep": true,
      "willSleepOnBed": false,
      "depth": "normal",
      "light": "0-4"
    }
  },
  "catchRate": 45,
  "maleRatio": 0.5,
  "shoulderMountable": false,
  "baseExperienceYield": 172,
  "experienceGroup": "medium_fast",
  "eggCycles": 20,
  "eggGroups": [
    "flying"
  ],
  "drops": {
    "amount": "1",
    "entries": [
      {
        "item": "cobblemon:light_clay",
        "percentage": 5
      }
    ]
  },
  "moves": [
    "1:confusion",
    "1:gust",
    "1:miracleeye",
    "5:gravity",
    "8:psywave",
    "10:hypnosis",
    "15:aircutter",
    "20:psybeam",
    "25:whirlwind",
    "30:cosmicpower",
    "31:synchronoise",
    "34:mirrormove",
    "35:airslash",
    "40:psychic",
    "45:tailwind",
    "50:lightscreen",
    "50:reflect",
    "55:skyattack",
    "60:skillswap",
    "egg:ancientpower",
    "egg:futuresight",
    "egg:psychoshift",
    "egg:roost",
    "egg:skillswap",
    "egg:steelwing",
    "egg:storedpower",
    "tm:aerialace",
    "tm:airslash",
    "tm:attract",
    "tm:calmmind",
    "tm:chargebeam",
    "tm:confide",
    "tm:cosmicpower",
    "tm:darkpulse",
    "tm:dazzlinggleam",
    "tm:doubleteam",
    "tm:dreameater",
    "tm:endure",
    "tm:energyball",
    "tm:facade",
    "tm:flash",
    "tm:flashcannon",
    "tm:fly",
    "tm:frustration",
    "tm:futuresight",
    "tm:gigaimpact",
    "tm:heatwave",
    "tm:hiddenpower",
    "tm:hyperbeam",
    "tm:icebeam",
    "tm:icywind",
    "tm:imprison",
    "tm:lightscreen",
    "tm:magicroom",
    "tm:pluck",
    "tm:powerswap",
    "tm:protect",
    "tm:psychic",
    "tm:psychocut",
    "tm:psychup",
    "tm:psyshock",
    "tm:raindance",
    "tm:reflect",
    "tm:rest",
    "tm:return",
    "tm:roost",
    "tm:round",
    "tm:safeguard",
    "tm:secretpower",
    "tm:shadowball",
    "tm:skillswap",
    "tm:sleeptalk",
    "tm:smackdown",
    "tm:snore",
    "tm:solarbeam",
    "tm:speedswap",
    "tm:steelwing",
    "tm:storedpower",
    "tm:substitute",
    "tm:swagger",
    "tm:swift",
    "tm:telekinesis",
    "tm:thief",
    "tm:thunderwave",
    "tm:toxic",
    "tm:trick",
    "tm:trickroom",
    "tm:zenheadbutt",
    "tutor:darkpulse",
    "tutor:defog",
    "tutor:dualwingbeat",
    "tutor:expandingforce",
    "tutor:gravity",
    "tutor:heatwave",
    "tutor:hypnosis",
    "tutor:icywind",
    "tutor:magiccoat",
    "tutor:magicroom",
    "tutor:roost",
    "tutor:shockwave",
    "tutor:signalbeam",
    "tutor:skillswap",
    "tutor:skyattack",
    "tutor:sleeptalk",
    "tutor:snore",
    "tutor:storedpower",
    "tutor:tailwind",
    "tutor:telekinesis",
    "tutor:trick",
    "tutor:zenheadbutt"
  ],
  "labels": [
    "gen5"
  ],
  "pokedex": [
    "cobblemon.species.sigilyph.desc"
  ],
  "evolutions": [],
  "baseScale": 1,
  "hitbox": {
    "width": 1,
    "height": 1,
    "fixed": false
  },
  "baseFriendship": 50,
  "evYield": {
    "hp": 0,
    "attack": 0,
    "defence": 0,
    "special_attack": 2,
    "special_defence": 0,
    "speed": 0
  },
  "height": 14,
  "weight": 140,
  "aspects": [],
  "cannotDynamax": false
}