{
  "name": "Lumineon",
  "nationalPokedexNumber": 457,
  "primaryType": "water",
  "abilities": [
    "swiftswim",
    "stormdrain",
    "h:waterveil"
  ],
  "baseStats": {
    "hp": 69,
    "attack": 69,
    "defence": 76,
    "special_attack": 69,
    "special_defence": 86,
    "speed": 91
  },
  "catchRate": 75,
  "maleRatio": 0.5,
  "shoulderMountable": false,
  "baseExperienceYield": 161,
  "experienceGroup": "erratic",
  "eggCycles": 20,
  "eggGroups": [
    "water_2"
  ],
  "moves": [
    "1:attract",
    "1:gust",
    "1:pound",
    "1:soak",
    "1:watergun",
    "13:raindance",
    "17:gust",
    "22:waterpulse",
    "26:attract",
    "26:captivate",
    "29:safeguard",
    "35:aquaring",
    "42:whirlpool",
    "48:uturn",
    "53:bounce",
    "59:silverwind",
    "59:tailwind",
    "66:soak",
    "tm:acrobatics",
    "tm:agility",
    "tm:aircutter",
    "tm:airslash",
    "tm:attract",
    "tm:blizzard",
    "tm:brine",
    "tm:captivate",
    "tm:charm",
    "tm:chillingwater",
    "tm:confide",
    "tm:confuseray",
    "tm:dazzlinggleam",
    "tm:defog",
    "tm:dive",
    "tm:doubleteam",
    "tm:encore",
    "tm:endure",
    "tm:facade",
    "tm:flash",
    "tm:frustration",
    "tm:gigaimpact",
    "tm:hail",
    "tm:helpinghand",
    "tm:hiddenpower",
    "tm:hydropump",
    "tm:hyperbeam",
    "tm:icebeam",
    "tm:icywind",
    "tm:naturalgift",
    "tm:payback",
    "tm:protect",
    "tm:psybeam",
    "tm:psychup",
    "tm:raindance",
    "tm:rest",
    "tm:return",
    "tm:round",
    "tm:safeguard",
    "tm:scald",
    "tm:secretpower",
    "tm:silverwind",
    "tm:sleeptalk",
    "tm:substitute",
    "tm:surf",
    "tm:swagger",
    "tm:swift",
    "tm:tailwind",
    "tm:takedown",
    "tm:terablast",
    "tm:thief",
    "tm:toxic",
    "tm:uturn",
    "tm:waterfall",
    "tm:waterpulse",
    "tm:whirlpool",
    "tutor:aircutter",
    "tutor:aquatail",
    "tutor:bounce",
    "tutor:defog",
    "tutor:dive",
    "tutor:icywind",
    "tutor:ominouswind",
    "tutor:signalbeam",
    "tutor:sleeptalk",
    "tutor:snore",
    "tutor:swift",
    "tutor:tailwind",
    "tutor:twister",
    "tutor:waterpulse"
  ],
  "labels": [
    "gen4"
  ],
  "pokedex": [
    "cobblemon.species.lumineon.desc"
  ],
  "preEvolution": "finneon",
  "evolutions": [],
  "baseScale": 1,
  "hitbox": {
    "width": 1,
    "height": 1,
    "fixed": false
  },
  "baseFriendship": 70,
  "evYield": {
    "hp": 0,
    "attack": 0,
    "defence": 0,
    "special_attack": 0,
    "special_defence": 0,
    "speed": 2
  },
  "height": 12,
  "weight": 240,
  "aspects": [],
  "cannotDynamax": false
}