{
  "baseYield": {
    "min": 1,
    "max": 3
  },
  "preferredBiomeTags": [
    "cobblemon:is_plains"
  ],
  "growthTime": {
    "min": 75,
    "max": 85
  },
  "refreshRate": {
    "min": 18,
    "max": 28
  },
  "favoriteMulches": [
    "loamy"
  ],
  "growthFactors": [
    {
      "variant": "cobblemon:preferred_biome",
      "bonusYield": {
        "min": 1,
        "max": 1
      }
    }
  ],
  "randomizedGrowthPoints": true,
  "spawnConditions": [],
  "growthPoints": [
    {
      "position": {
        "x": 9.5,
        "y": 21.75,
        "z": 5.5
      },
      "rotation": {
        "x": 5.0,
        "y": -37.5,
        "z": 2.5
      }
    },
    {
      "position": {
        "x": 7.5,
        "y": 21.75,
        "z": 11.25
      },
      "rotation": {
        "x": -177.5,
        "y": -5.0,
        "z": -175.0
      }
    },
    {
      "position": {
        "x": 4.5,
        "y": 15.25,
        "z": 9.0
      },
      "rotation": {
        "x": -170.0,
        "y": 65.0,
        "z": -175.0
      }
    },
    {
      "position": {
        "x": 8.0,
        "y": 11.25,
        "z": 4.5
      },
      "rotation": {
        "x": 20.0,
        "y": -80.0,
        "z": -15.0
      }
    }
  ],
  "mutations": {},
  "sproutShape": [
    {
      "minX": 7,
      "minY": -1,
      "minZ": 7,
      "maxX": 9,
      "maxY": 0,
      "maxZ": 9
    }
  ],
  "matureShape": [
    {
      "minX": 0,
      "minY": 0,
      "minZ": 0,
      "maxX": 16,
      "maxY": 32,
      "maxZ": 16
    }
  ],
  "flavors": {
    "DRY": 30,
    "SWEET": 10,
    "BITTER": 30
  },
  "weight": 1.0,
  "tintIndexes": [],
  "flowerModel": "cobblemon:flower.geo",
  "flowerTexture": "cobblemon:textures/berries/flower.png",
  "fruitModel": "cobblemon:ganlon_berry.geo",
  "fruitTexture": "cobblemon:textures/berries/ganlon.png"
}