{
  "baseYield": {
    "min": 1,
    "max": 3
  },
  "preferredBiomeTags": [
    "cobblemon:is_jungle",
    "cobblemon:is_swamp"
  ],
  "growthTime": {
    "min": 75,
    "max": 85
  },
  "refreshRate": {
    "min": 15,
    "max": 25
  },
  "favoriteMulches": [
    "humid"
  ],
  "growthFactors": [
    {
      "variant": "cobblemon:preferred_biome",
      "bonusYield": {
        "min": 1,
        "max": 1
      }
    }
  ],
  "randomizedGrowthPoints": true,
  "spawnConditions": [],
  "growthPoints": [
    {
      "position": {
        "x": 9.25,
        "y": 13.5,
        "z": 8.0
      },
      "rotation": {
        "x": 0.0,
        "y": 70.0,
        "z": 147.5
      }
    },
    {
      "position": {
        "x": 8.0,
        "y": 13.5,
        "z": 9.25
      },
      "rotation": {
        "x": -145.0,
        "y": 17.5,
        "z": 10.0
      }
    },
    {
      "position": {
        "x": 8.0,
        "y": 13.5,
        "z": 6.75
      },
      "rotation": {
        "x": 35.0,
        "y": -17.5,
        "z": 170.0
      }
    },
    {
      "position": {
        "x": 6.75,
        "y": 13.5,
        "z": 8.0
      },
      "rotation": {
        "x": 180.0,
        "y": -70.0,
        "z": 32.5
      }
    }
  ],
  "mutations": {},
  "sproutShape": [
    {
      "minX": 7,
      "minY": -1,
      "minZ": 7,
      "maxX": 9,
      "maxY": 0,
      "maxZ": 9
    }
  ],
  "matureShape": [
    {
      "minX": 0,
      "minY": 0,
      "minZ": 0,
      "maxX": 16,
      "maxY": 32,
      "maxZ": 16
    }
  ],
  "flavors": {
    "SPICY": 10,
    "DRY": 10,
    "SWEET": 30,
    "BITTER": 30,
    "SOUR": 10
  },
  "weight": 1.0,
  "tintIndexes": [],
  "flowerModel": "cobblemon:flower.geo",
  "flowerTexture": "cobblemon:textures/berries/flower.png",
  "fruitModel": "cobblemon:maranga_berry.geo",
  "fruitTexture": "cobblemon:textures/berries/maranga.png"
}