{
  "baseYield": {
    "min": 2,
    "max": 3
  },
  "preferredBiomeTags": [
    "cobblemon:is_grassland",
    "cobblemon:is_hills",
    "cobblemon:is_sky"
  ],
  "growthTime": {
    "min": 50,
    "max": 60
  },
  "refreshRate": {
    "min": 16,
    "max": 26
  },
  "favoriteMulches": [
    "coarse",
    "loamy",
    "sandy"
  ],
  "growthFactors": [
    {
      "variant": "cobblemon:preferred_biome",
      "bonusYield": {
        "min": 1,
        "max": 2
      }
    }
  ],
  "randomizedGrowthPoints": true,
  "spawnConditions": [],
  "growthPoints": [
    {
      "position": {
        "x": 5.5,
        "y": 18.75,
        "z": 5.75
      },
      "rotation": {
        "x": 0.0,
        "y": -5.0,
        "z": -10.0
      }
    },
    {
      "position": {
        "x": 9.5,
        "y": 24.75,
        "z": 6.25
      },
      "rotation": {
        "x": 25.0,
        "y": -62.5,
        "z": -20.0
      }
    },
    {
      "position": {
        "x": 10.0,
        "y": 12.75,
        "z": 9.75
      },
      "rotation": {
        "x": 5.0,
        "y": 17.5,
        "z": 10.0
      }
    },
    {
      "position": {
        "x": 6.75,
        "y": 18.75,
        "z": 9.5
      },
      "rotation": {
        "x": -42.5,
        "y": -55.0,
        "z": 35.0
      }
    },
    {
      "position": {
        "x": 6.0,
        "y": 12.75,
        "z": 9.75
      },
      "rotation": {
        "x": -2.5,
        "y": -20.0,
        "z": -10.0
      }
    }
  ],
  "mutations": {
    "cobblemon:sitrus_berry": "cobblemon:enigma_berry",
    "cobblemon:enigma_berry": "cobblemon:maranga_berry"
  },
  "sproutShape": [
    {
      "minX": 7,
      "minY": -1,
      "minZ": 7,
      "maxX": 9,
      "maxY": 0,
      "maxZ": 9
    }
  ],
  "matureShape": [
    {
      "minX": 0,
      "minY": 0,
      "minZ": 0,
      "maxX": 16,
      "maxY": 32,
      "maxZ": 16
    }
  ],
  "flavors": {
    "SWEET": 15,
    "SOUR": 10
  },
  "weight": 1.0,
  "tintIndexes": [],
  "flowerModel": "cobblemon:flower.geo",
  "flowerTexture": "cobblemon:textures/berries/flower.png",
  "fruitModel": "cobblemon:wacan_berry.geo",
  "fruitTexture": "cobblemon:textures/berries/wacan.png"
}