{
  "implemented": true,
  "name": "Yamper",
  "nationalPokedexNumber": 835,
  "primaryType": "electric",
  "abilities": [
    "ballfetch",
    "h:rattled"
  ],
  "baseStats": {
    "hp": 59,
    "attack": 45,
    "defence": 50,
    "special_attack": 40,
    "special_defence": 50,
    "speed": 26
  },
  "catchRate": 255,
  "maleRatio": 0.5,
  "shoulderMountable": false,
  "baseExperienceYield": 54,
  "experienceGroup": "fast",
  "eggCycles": 20,
  "eggGroups": [
    "field"
  ],
  "moves": [
    "1:tackle",
    "1:tailwhip",
    "5:nuzzle",
    "10:bite",
    "15:roar",
    "20:spark",
    "26:charm",
    "30:crunch",
    "35:charge",
    "40:wildcharge",
    "45:playrough",
    "egg:discharge",
    "egg:doubleedge",
    "egg:flamecharge",
    "egg:howl",
    "egg:sandattack",
    "tm:attract",
    "tm:charm",
    "tm:crunch",
    "tm:dig",
    "tm:electroball",
    "tm:endure",
    "tm:facade",
    "tm:firefang",
    "tm:helpinghand",
    "tm:playrough",
    "tm:protect",
    "tm:rest",
    "tm:round",
    "tm:sleeptalk",
    "tm:snarl",
    "tm:snore",
    "tm:substitute",
    "tm:swift",
    "tm:thunder",
    "tm:thunderbolt",
    "tm:thunderfang",
    "tm:thunderwave",
    "tm:uproar",
    "tm:voltswitch",
    "tm:wildcharge",
    "tutor:risingvoltage"
  ],
  "labels": [
    "gen8"
  ],
  "pokedex": [
    "cobblemon.species.yamper.desc"
  ],
  "evolutions": [
    {
      "id": "yamper_boltund",
      "variant": "level_up",
      "result": "boltund",
      "consumeHeldItem": false,
      "learnableMoves": [],
      "requirements": [
        {
          "variant": "level",
          "minLevel": 25
        }
      ]
    }
  ],
  "baseScale": 0.65,
  "hitbox": {
    "width": 0.7,
    "height": 0.9,
    "fixed": false
  },
  "baseFriendship": 50,
  "evYield": {
    "hp": 1,
    "attack": 0,
    "defence": 0,
    "special_attack": 0,
    "special_defence": 0,
    "speed": 0
  },
  "height": 3,
  "weight": 135,
  "aspects": [],
  "cannotDynamax": false
}