{
  "replace": false,
  "values": [
    "minecraft:deep_dark",
	{
      "id": "terralith:cave/crystal_caves",
      "required": false
    },
	{
      "id": "terralith:cave/deep_caves",
      "required": false
    },
	{
      "id": "terralith:cave/frostfire_caves",
      "required": false
    },
	{
      "id": "terralith:cave/mantle_caves",
      "required": false
    },
	{
      "id": "terralith:cave/tuff_caves",
      "required": false
    }
  ]
}
