{
	"format_version": "1.8.0",
	"animations": {
		"animation.tinkatink.ground_idle": {
			"loop": true,
			"bones": {
				"arm_left": {
					"rotation": [-19.32246, 15.41913, "19.5413+Math.cos((query.anim_time) * 90 * 2) * 2"]
				},
				"finger_left": {
					"rotation": [0, 0, 32.5]
				},
				"finger_left2": {
					"rotation": [0, 0, 25]
				},
				"finger_left3": {
					"rotation": [0, 0, 25]
				},
				"hammer": {
					"rotation": ["122.5+Math.cos((query.anim_time) * 90 * 2) * 0.5", -5, -10],
					"position": [0, -0.75, 0.25]
				},
				"arm_right": {
					"rotation": [0, -22.5, "-25+Math.cos((query.anim_time) * 90 * 2 - 90) * 4"]
				},
				"finger_right": {
					"rotation": [0, 0, -10]
				},
				"finger_right2": {
					"rotation": [0, 0, -15]
				},
				"finger_right3": {
					"rotation": [0, 0, -15]
				},
				"leg_left": {
					"rotation": [0, -5, 0]
				},
				"leg_right": {
					"rotation": [0, 5, 0]
				},
				"hair": {
					"rotation": ["0+Math.cos((query.anim_time) * 90 * 2 - 120) * 5", 30, 0]
				},
				"torso": {
					"rotation": ["0+Math.cos((query.anim_time) * 90 * 2 - 90) * -1", 0, 0],
					"position": [0, "0+Math.cos((query.anim_time) * 90 * 2) * 0.15", 0]
				},
				"head": {
					"rotation": ["0+Math.cos((query.anim_time) * 90 * 2 - 60) * 2", 0, 0]
				},
				"hair4": {
					"rotation": ["0+Math.cos((query.anim_time) * 90 * 2 - 60) * -4", 0, 0]
				},
				"hair2": {
					"rotation": ["0+Math.cos((query.anim_time) * 90 * 2 - 180) * 4", 0, 0]
				},
				"arm_hammer_left": {
					"rotation": [-27.5, 22.5, "15+Math.cos((query.anim_time) * 90 * 2) * 2"]
				},
				"hammer2": {
					"rotation": [-14.56946, -2.56104, 2.8077],
					"position": [-1.23771, -1.29134, 0.78295]
				}
			}
		},
		"animation.tinkatink.ground_walk": {
			"loop": true,
			"animation_length": 1,
			"bones": {
				"torso": {
					"rotation": [
						"0+Math.cos((query.anim_time) * 90 * 8 - 90) * 3",
						"0+Math.cos((query.anim_time) * 90 * 4) * 6",
						"0+Math.cos((query.anim_time) * 90 * 4) * -3"
					],
					"position": [0, "0+Math.cos((query.anim_time) * 90 * 8) * -0.3", 0]
				},
				"head": {
					"rotation": [
						"0+Math.cos((query.anim_time) * 90 * 8 - 120) * -3",
						"0+Math.cos((query.anim_time) * 90 * 4 - 10) * -6",
						"0+Math.cos((query.anim_time) * 90 * 4 - 60) * 3"
					],
					"position": [0, "0+Math.cos((query.anim_time) * 90 * 8 - 60) * -0.1", 0]
				},
				"hair3": {
					"rotation": ["0+Math.cos((query.anim_time) * 90 * 8 - 100) * 3", 0, 0]
				},
				"hair": {
					"rotation": ["0+Math.cos((query.anim_time) * 90 * 8 - 120) * 10", 12.5, "0+Math.cos((query.anim_time) * 90 * 4 - 180) * 10"]
				},
				"hair2": {
					"rotation": ["0+Math.cos((query.anim_time) * 90 * 8 - 180) * 8", 0, 0]
				},
				"arm_left": {
					"rotation": {
						"0.0": [-72.5, "Math.cos((query.anim_time) * 90 * 4) * -12", "10+Math.cos((query.anim_time) * 90 * 8 - 130) * 5"],
						"0.2083": [-72.79827, "Math.cos((query.anim_time) * 90 * 4) * -13.4915", "14.7817+Math.cos((query.anim_time) * 90 * 8 - 130) * 5"],
						"0.4583": [-73.90782, "Math.cos((query.anim_time) * 90 * 4) * -12.0595", "9.8643+Math.cos((query.anim_time) * 90 * 8 - 130) * 5"],
						"0.7083": [-73.53659, "Math.cos((query.anim_time) * 90 * 4) * -14.1614", "17.0733+Math.cos((query.anim_time) * 90 * 8 - 130) * 5"],
						"0.9583": [-72.5, "Math.cos((query.anim_time) * 90 * 4) * -12", "10+Math.cos((query.anim_time) * 90 * 8 - 130) * 5"]
					}
				},
				"finger_left": {
					"rotation": {
						"0.0": [0, 0, 17.5],
						"0.25": [0, 0, 12.5],
						"0.5833": [0, 0, 7.5],
						"0.9583": [0, 0, 17.5]
					}
				},
				"hammer": {
					"rotation": [12.5, 0, "15+Math.cos((query.anim_time) * 90 * 3 - 180) * 0.6"],
					"position": [0, -0.25, -0.25]
				},
				"hammer2": {
					"rotation": [4.97178, 0.65182, -4.95744],
					"position": [-1.21837, -0.34346, -0.4909]
				},
				"arm_right": {
					"rotation": [0, "0+Math.cos((query.anim_time) * 90 * 4) * -12", "-10+Math.cos((query.anim_time) * 90 * 8 - 130) * -5"]
				},
				"leg_left": {
					"rotation": {
						"0.0": [-3.75, -1.25, 0],
						"0.125": [-0.75, -0.275, 0],
						"0.25": [0, 0, 0],
						"0.5": [10, -0.825, 0],
						"0.75": [-10, -5, 0],
						"0.875": [-8.75, -6.25, 0],
						"1.0": [-3.75, -1.25, 0]
					},
					"position": {
						"0.0": [0, 0, -0.825],
						"0.0417": [0, -0.275, -0.74],
						"0.125": [0, 0, -0.575],
						"0.375": [0, 0, 0.42],
						"0.5": [0, 0, 0.75],
						"0.625": [0, 0.75, 0.5],
						"0.75": [0, 1, -0.05],
						"0.875": [0, 0.75, -0.575],
						"1.0": [0, 0, -0.825]
					}
				},
				"leg_right": {
					"rotation": {
						"0.0": [10, 0.825, 0],
						"0.25": [-10, 5, 0],
						"0.375": [-8.75, 6.25, 0],
						"0.5": [-3.75, 1.25, 0],
						"0.625": [-0.75, 0.275, 0],
						"0.75": [0, 0, 0],
						"1.0": [10, 0.825, 0]
					},
					"position": {
						"0.0": [0, 0, 0.75],
						"0.125": [0, 0.75, 0.5],
						"0.25": [0, 1, -0.05],
						"0.375": [0, 0.75, -0.575],
						"0.5": [0, 0, -0.825],
						"0.5417": [0, -0.275, -0.74],
						"0.625": [0, 0, -0.575],
						"0.875": [0, 0, 0.42],
						"1.0": [0, 0, 0.75]
					}
				},
				"arm_hammer_left": {
					"rotation": [0, "0+Math.cos((query.anim_time) * 90 * 4) * -12", "10+Math.cos((query.anim_time) * 90 * 8 - 130) * 5"]
				},
				"finger_left2": {
					"rotation": [0, 0, -15]
				},
				"finger_left3": {
					"rotation": {
						"0.0": [0, 0, 20],
						"0.5833": [0, 0, 10],
						"0.9583": [0, 0, 20]
					}
				}
			}
		},
		"animation.tinkatink.ground_run": {
			"loop": true,
			"animation_length": 0.75,
			"bones": {
				"body": {
					"position": {
						"0.0": [0, 0, 0],
						"0.0833": [0, 0.65, 0],
						"0.125": [0, 0.75, 0],
						"0.1667": [0, 0.65, 0],
						"0.25": [0, 0, 0],
						"0.375": [0, 0, 0],
						"0.4583": [0, 0.65, 0],
						"0.5": [0, 0.75, 0],
						"0.5417": [0, 0.65, 0],
						"0.625": [0, 0, 0]
					}
				},
				"torso": {
					"rotation": [
						"-7.5+Math.cos((query.anim_time) * 90 * 85/16 * 2 - 90) * -2",
						"0+Math.cos((query.anim_time) * 90 * 85/16 * 1) * -5",
						"0+Math.cos((query.anim_time) * 90 * 85/16 * 1 - 90) * -4"
					],
					"position": [0, "0+Math.cos((query.anim_time) * 90 * 85/16 * 2) * -0.4", 0]
				},
				"head": {
					"rotation": [
						"5+Math.cos((query.anim_time) * 90 * 85/16 * 2 - 120) * 2",
						"0+Math.cos((query.anim_time) * 90 * 85/16 * 1 - 45) * 3",
						"0+Math.cos((query.anim_time) * 90 * 85/16 * 1 - 45) * 3"
					]
				},
				"hair4": {
					"rotation": ["0+Math.cos((query.anim_time) * 90 * 85/16 * 2 - 140) * 5", 0, 0]
				},
				"hair": {
					"rotation": ["-32.5+Math.cos((query.anim_time) * 90 * 85/16 * 2 - 180) * -10", 25, "0+Math.cos((query.anim_time) * 90 * 85/16 * 1 - 140) * -10"]
				},
				"hair2": {
					"rotation": ["0+Math.cos((query.anim_time) * 90 * 85/16 * 2 - 260) * -6", 0, 0]
				},
				"arm_left": {
					"rotation": [-20, -22.5, "0+Math.cos((query.anim_time) * 90 * 85/16 * 2 - 90) * 8"]
				},
				"hammer": {
					"rotation": ["0+Math.cos((query.anim_time) * 90 * 85/16 * 1 - 90) * -30", 0, "22.5+Math.cos((query.anim_time) * 90 * 85/16 * 2 - 160) * 10"]
				},
				"arm_right": {
					"rotation": [-20, 22.5, "0+Math.cos((query.anim_time) * 90 * 85/16 * 2 - 90) * -8"]
				},
				"leg_left": {
					"rotation": {
						"0.0": [8.75, 0, 0],
						"0.125": [17.5, 0, 0],
						"0.375": [-15, 0, 0],
						"0.5417": [-12.5, 0, 0],
						"0.625": [0, 0, 0],
						"0.75": [8.75, 0, 0]
					},
					"position": {
						"0.0": [0, 0.1, 1],
						"0.0833": [0, 0.8, 1.13],
						"0.1667": [0, 1, 1.25],
						"0.3333": [0, 0.72, -0.33],
						"0.375": [0, 0.75, -0.5],
						"0.5": [0, 0.5, -0.75],
						"0.5833": [0, 0, -0.75],
						"0.75": [0, 0.1, 1]
					}
				},
				"leg_right": {
					"rotation": {
						"0.0": [-15, 0, 0],
						"0.1667": [-12.5, 0, 0],
						"0.25": [0, 0, 0],
						"0.5": [17.5, 0, 0],
						"0.75": [-15, 0, 0]
					},
					"position": {
						"0.0": [0, 0.75, -0.5],
						"0.125": [0, 0.5, -0.75],
						"0.2083": [0, 0, -0.75],
						"0.375": [0, 0.1, 1],
						"0.4583": [0, 0.8, 1.13],
						"0.5417": [0, 1, 1.25],
						"0.7083": [0, 0.72, -0.33],
						"0.75": [0, 0.75, -0.5]
					}
				},
				"arm_hammer_left": {
					"rotation": [-20, -22.5, "0+Math.cos((query.anim_time) * 90 * 85/16 * 2 - 90) * 8"]
				}
			}
		},
		"animation.tinkatink.battle_idle": {
			"loop": true,
			"bones": {
				"torso": {
					"rotation": ["-10+Math.cos((query.anim_time) * 90 * 2) * 2", 5, -2.5],
					"position": [0, "0+Math.cos((query.anim_time) * 90 * 2 - 90) * 0.15", 0]
				},
				"head": {
					"rotation": ["10+Math.cos((query.anim_time) * 90 * 2 - 30) * -2", -5, 2.5]
				},
				"hair4": {
					"rotation": ["0+Math.cos((query.anim_time) * 90 * 2 - 180) * -5", 0, 0]
				},
				"hair": {
					"rotation": ["0+Math.cos((query.anim_time) * 90 * 2 - 140) * 5", 30, 0]
				},
				"arm_left": {
					"rotation": [-53.17153, 17.52179, "25.3472+Math.cos((query.anim_time) * 90 * 2 - 120) * 5"]
				},
				"hammer": {
					"rotation": [22.5, 0, "21+Math.cos((query.anim_time) * 90 * 2 - 270) * 3"]
				},
				"arm_right": {
					"rotation": [0, 25, "-15+Math.cos((query.anim_time) * 90 * 2 - 120) * -5"]
				},
				"leg_left": {
					"rotation": [0, -7.5, 0]
				},
				"leg_right": {
					"rotation": [0, 2.5, 0]
				},
				"arm_hammer_left": {
					"rotation": [-2.5, 35, "12.5+Math.cos((query.anim_time) * 90 * 2 - 120) * 5"]
				},
				"hammer2": {
					"rotation": [13.64491, -6.00641, 15.89445],
					"position": [0.5, -2.25, -0.75]
				},
				"finger_left": {
					"rotation": [0, 0, 10]
				},
				"finger_left2": {
					"rotation": [0, 0, 15]
				},
				"finger_left3": {
					"rotation": [0, 0, 37.5]
				}
			}
		},
		"animation.tinkatink.sleep": {
			"loop": true,
			"bones": {
				"body": {
					"rotation": [-90, 0, 0],
					"position": [0, -2.5, 0]
				},
				"torso": {
					"rotation": ["0+Math.cos((query.anim_time) * 90 * 1) * 1", 0, 0]
				},
				"head": {
					"rotation": ["7.5+Math.cos((query.anim_time) * 90 * 1) * -1", -5, 0]
				},
				"eyelid_right": {
					"position": [0, 0, -0.1]
				},
				"eyelid_left": {
					"position": [0, 0, -0.1]
				},
				"hair": {
					"rotation": [-35, -50, 0]
				},
				"hair2": {
					"rotation": [0, 0, 20]
				},
				"arm_left": {
					"rotation": [-85, 100, 0]
				},
				"hammer": {
					"rotation": [100, -27.5, 0],
					"position": [-1.63659, -1.07651, 3.16823]
				},
				"arm_right": {
					"rotation": [-80.89079, -82.69097, -6.55875]
				},
				"finger_right": {
					"rotation": [0, 0, 17.5]
				},
				"finger_right2": {
					"rotation": [0, 0, 37.5]
				},
				"finger_right3": {
					"rotation": [0, 0, 20]
				},
				"leg_left": {
					"rotation": [-10, 12.5, -5]
				},
				"leg_right": {
					"rotation": [-10, -12.5, 5]
				},
				"arm_hammer_left": {
					"rotation": [-85, 100, 0]
				}
			}
		},
		"animation.tinkatink.faint": {
			"animation_length": 3,
			"bones": {
				"body": {
					"rotation": {
						"0.3333": [0, 0, 0],
						"0.4583": [0, 6.5, 0],
						"0.625": [0, 23, 0],
						"0.75": [0, 28, 0],
						"1.625": [0, 28, 0],
						"1.75": [-10.75, 28, 2.13],
						"1.875": [-60, 28, 15],
						"1.9167": [-69, 28, 15],
						"2.0": [-64.75, 28, 15],
						"2.125": [-62.25, 28, 15]
					},
					"position": {
						"0.4167": [0, 0, 0],
						"0.5": [0.25, -0.33, 0.33],
						"0.5833": {
							"pre": [1, -1.25, 1.5],
							"post": [1, -1.25, 1.5],
							"lerp_mode": "catmullrom"
						},
						"0.625": {
							"post": [1.5, -1.75, 1.75],
							"lerp_mode": "catmullrom"
						},
						"0.75": {
							"post": [1.4, -1.35, 1.575],
							"lerp_mode": "catmullrom"
						},
						"0.8333": [1.35, -1.25, 1.5],
						"1.625": [1.35, -1.25, 1.5],
						"1.7917": [2.35, -1.25, 2.25],
						"1.9167": [2.35, -2.25, 2.25],
						"2.0417": [2.35, -2, 2.25]
					},
					"scale": {
						"0.5833": [1, 1, 1],
						"0.625": [1.1, 0.9, 1.1],
						"0.7083": [1, 1, 1],
						"1.5417": [1, 1, 1],
						"1.5833": [1.2, 0.9, 1.2],
						"1.7083": [1, 1, 1]
					}
				},
				"torso": {
					"rotation": {
						"0.0": [0, 0, 0],
						"0.25": {
							"pre": [7.5, -22.5, 0],
							"post": [7.5, -22.5, 0],
							"lerp_mode": "catmullrom"
						},
						"0.3333": {
							"post": [5, -19.83, 0],
							"lerp_mode": "catmullrom"
						},
						"0.5": {
							"post": [-17.5, 7, 0],
							"lerp_mode": "catmullrom"
						},
						"0.625": [-22.5, 15.575, 0],
						"0.75": [-22.5, 18.8, 0],
						"1.0": [-22.5, 18.8, "0+Math.cos((query.anim_time) * 90 * 8) * 5"],
						"1.5417": [-22.5, 18.8, "0+Math.cos((query.anim_time) * 90 * 8) * 5"],
						"1.5833": [-22.5, 18.8, 0]
					},
					"position": {
						"0.0": [0, 0, 0],
						"0.2083": [0, -0.415, 0],
						"0.3333": [0, -0.5, 0],
						"0.4583": [0, -0.4, 0],
						"0.5833": [0, -0.075, 0],
						"0.6667": [0, 0, 0],
						"1.5417": [0, 0, 0],
						"1.5833": [0, -1, 0],
						"1.7083": [0, -1.1, 0],
						"1.875": [0, 0, 0]
					}
				},
				"eyelid_right": {
					"position": {
						"0.375": [0, 0, 0],
						"0.4167": [0, 0, -0.125],
						"0.625": [0, 0, -0.125],
						"0.6667": [0, 0, 0],
						"0.8333": [0, 0, 0],
						"0.875": [0, 0, -0.125],
						"1.5833": [0, 0, -0.125],
						"1.625": [0, 0, 0],
						"1.7083": [0, 0, 0],
						"1.75": [0, 0, -0.125]
					}
				},
				"eyelid_left": {
					"position": {
						"0.375": [0, 0, 0],
						"0.4167": [0, 0, -0.125],
						"0.625": [0, 0, -0.125],
						"0.6667": [0, 0, 0],
						"0.8333": [0, 0, 0],
						"0.875": [0, 0, -0.125],
						"1.5833": [0, 0, -0.125],
						"1.625": [0, 0, 0],
						"1.7083": [0, 0, 0],
						"1.75": [0, 0, -0.125]
					}
				},
				"mouth_open": {
					"position": {
						"0.8333": [0, 0, 0],
						"0.875": [0, 0, -0.125],
						"1.875": [0, 0, -0.125],
						"1.9167": [0, 0, 0]
					}
				},
				"arm_left": {
					"rotation": {
						"0.0": [0, 0, 17.5],
						"0.25": [0, -25, 5],
						"0.4167": [0, -32.5, 3.5],
						"0.5": [-11.25, 61.5, -38.25],
						"0.5833": [-22.5, 67.5, -43.25],
						"0.7083": [-25, 56.75, -40],
						"0.7917": [-10.07, 28.03, -21.64],
						"1.0": [20, 0, "-3.75+Math.cos((query.anim_time) * 90 * 16) * 20"],
						"1.5833": [20, 0, "-3.75+Math.cos((query.anim_time) * 90 * 16) * 20"],
						"1.625": [20, 0, -26.25],
						"1.75": [20, 17.5, -31.25],
						"1.8333": [20, 47.5, -31.25],
						"2.0": [20, -17.5, -31.25],
						"2.0833": [20, 1, -31.25],
						"2.2083": [20, 6, -31.25],
						"2.375": [20, -2.15, -31.25],
						"2.4167": [20, -5, -31.25]
					},
					"position": {
						"0.9167": [0, 0, 0],
						"1.0": [0.04125, 0.46907, -0.1791]
					}
				},
				"head": {
					"rotation": {
						"0.0": [0, 0, 0],
						"0.2083": [7.14, -22.86, 0],
						"0.2917": [10, -25, 0],
						"0.4167": [8.93, -18.93, 0],
						"0.5417": [-10, 12.5, 0],
						"0.7083": [22.5, 0, 0],
						"0.7917": [19.75, 0, 0],
						"0.9167": [4, 0, 0],
						"1.0417": [-3.75, 0, 0],
						"1.1667": ["-6.25+Math.cos((query.anim_time) * 90 * 16) * 3", 0, "0+Math.cos((query.anim_time) * 90 * 8 - 90) * 6"],
						"1.5417": ["-6.25+Math.cos((query.anim_time) * 90 * 16) * 3", 0, "0+Math.cos((query.anim_time) * 90 * 8 - 90) * 6"],
						"1.5833": [13.75, 0, 4.25],
						"1.75": [31.25, 0, 4.25],
						"1.875": [36.75, 0, 4.25],
						"1.9583": [11.25, 0, 4.25]
					},
					"scale": {
						"1.5417": [1, 1, 1],
						"1.625": [1.4, 0.7, 1.4],
						"1.75": [1, 1, 1]
					}
				},
				"hair4": {
					"rotation": {
						"0.0": [0, 0, 0],
						"0.5417": [0, 0, 0],
						"0.6667": [-37.5, 0, 0],
						"0.7917": [0, 0, 0],
						"1.5417": [0, 0, 0],
						"1.625": [-50, 0, 0],
						"1.75": [0, 0, 0]
					}
				},
				"eye_right": {
					"scale": {
						"1.5833": [1, 1, 1],
						"1.625": [1.4, 1.4, 3.3],
						"1.7083": [1, 1, 1]
					}
				},
				"eye_left": {
					"scale": {
						"1.5833": [1, 1, 1],
						"1.625": [1.4, 1.4, 3.3],
						"1.7083": [1, 1, 1]
					}
				},
				"hair": {
					"rotation": {
						"0.0": [0, 19, 0],
						"0.25": [0, 19, -30],
						"0.375": [0, 19, -6],
						"0.5417": [20, 19, 22.5],
						"0.6667": [14.38, 19, 22.5],
						"0.8333": [-17.5, 19, 22.5],
						"1.1667": [-17.5, 19, "Math.cos((query.anim_time) * 90 * 8 - 140) * 20"],
						"1.5833": [-17.5, 19, "Math.cos((query.anim_time) * 90 * 8 - 140) * 20"],
						"1.625": [0, 19, 75],
						"1.875": [0, 19, 5],
						"2.0": [-45, 19, 5],
						"2.125": [-40, 19, 5],
						"2.25": [-37.5, 19, 5]
					}
				},
				"finger_left": {
					"rotation": [0, 0, 22.5]
				},
				"finger_left2": {
					"rotation": [0, 0, 22.5]
				},
				"finger_left3": {
					"rotation": [0, 0, 22.5]
				},
				"hammer": {
					"rotation": {
						"0.0": [35, 0, 15],
						"0.3333": [25, 0, 15],
						"0.4167": [6.25, 0, 15],
						"0.5": [-42.5, 0, 15],
						"0.5833": [0, 0, 0]
					},
					"position": {
						"0.75": [0, 0, 0],
						"0.875": {
							"pre": [-0.05381, -0.053, 0.01974],
							"post": [-0.05381, -0.053, 0.01974],
							"lerp_mode": "catmullrom"
						},
						"1.0": {
							"post": [-0.1776, -0.50198, -1.92781],
							"lerp_mode": "catmullrom"
						},
						"1.0833": {
							"post": [0.42958, -0.99277, -0.70609],
							"lerp_mode": "catmullrom"
						},
						"1.1667": {
							"post": [1.07581, -1.26927, 1.63047],
							"lerp_mode": "catmullrom"
						},
						"1.25": {
							"post": [1.71571, -1.76492, 2.68686],
							"lerp_mode": "catmullrom"
						},
						"1.2917": {
							"post": [1.4763, -1.56091, 2.44125],
							"lerp_mode": "catmullrom"
						},
						"1.3333": {
							"post": [1.23469, -1.46056, 1.5573],
							"lerp_mode": "catmullrom"
						},
						"1.4167": {
							"post": [0.73434, -1.32779, -0.60517],
							"lerp_mode": "catmullrom"
						},
						"1.5": [0.2512, -0.91099, -1.40391],
						"1.5833": [0, 0, 0],
						"1.6667": [0, 0, 0],
						"1.75": [2.74438, 3.88738, -3.59085],
						"1.7917": [5.05872, 3.33646, -6.75631],
						"1.875": [8.03179, -2.59678, -13.1235],
						"1.9167": [8.48378, -4.35024, -13.92534],
						"2.0833": [7.44705, 1.5875, -12.85055],
						"2.2083": [-2.8373, 9.56547, -4.02973],
						"2.2917": {
							"pre": [1.16204, 9.43193, -7.97424],
							"post": [1.16204, 9.43193, -7.97424],
							"lerp_mode": "catmullrom"
						},
						"2.4167": {
							"post": [2.0885, 10.64155, -9.28626],
							"lerp_mode": "catmullrom"
						},
						"2.5417": {
							"post": [1.62047, 12.81415, -9.51933],
							"lerp_mode": "catmullrom"
						},
						"2.625": [-1.41083, 15.82228, -7.46082]
					}
				},
				"hammer2": {
					"rotation": {
						"0.5": [0, 0, 0],
						"0.875": [0, -12.5, -218.305],
						"1.0417": [0, -12.5, -266.775],
						"1.2083": [0, -12.5, -308.7],
						"1.375": [0, -12.5, -378.85],
						"1.5417": [0, -12.5, -491.725],
						"1.5833": [0, -12.5, -504],
						"1.6667": [0, -12.5, -504],
						"2.125": [33.1, 35.81, -682.915],
						"2.2083": [35, 37.5, -696.5],
						"2.4167": [20, 37.5, -721.5],
						"2.625": [-5, 37.5, -744],
						"2.6667": [32.5, 37.5, -689],
						"2.75": [25, 37.5, -701.5],
						"2.9167": [27.5, 37.5, -696.5]
					},
					"position": {
						"0.5": [0, 0, 0],
						"0.5417": {
							"pre": [3.6596, 3.81998, -2.62911],
							"post": [3.6596, 3.81998, -2.62911],
							"lerp_mode": "catmullrom"
						},
						"0.5833": {
							"post": [8.53335, 6.85005, -3.16172],
							"lerp_mode": "catmullrom"
						},
						"0.625": {
							"post": [12.12005, 10.76412, -4.62443],
							"lerp_mode": "catmullrom"
						},
						"0.6667": {
							"post": [13.21657, 11.80941, -4.58838],
							"lerp_mode": "catmullrom"
						},
						"0.7917": {
							"post": [14.10273, 14.70891, -5.02122],
							"lerp_mode": "catmullrom"
						},
						"0.9583": [14.2869, 16.03039, -5.7975],
						"1.2917": [13.22661, 16.37395, -5.82988],
						"1.4167": [11.29553, 15.49853, -5.58331],
						"1.5": [8.95876, 12.68122, -5.30363],
						"1.5833": [-0.96416, 1.85335, -2.2858],
						"1.625": [0.29448, 3.16674, -2.69353]
					},
					"scale": {
						"0.5": [1, 1, 1],
						"0.5417": [0.8, 1.4, 0.8],
						"0.6667": [1, 1, 1],
						"1.5": [1, 1, 1],
						"1.5417": [0.7, 1.6, 0.7],
						"1.625": [1.5, 0.9, 1.7],
						"1.7083": [1, 1, 1]
					}
				},
				"arm_right": {
					"rotation": {
						"0.0": [0, 0, -20],
						"0.375": [0, -37.5, -22.5],
						"0.5833": [-12.5, -17.5, 7.5],
						"0.7083": [-6.75, -34.17, 13.33],
						"1.0": [20, -12.5, "3.75+Math.cos((query.anim_time) * 90 * 16) * -20"],
						"1.5833": [20, -12.5, "3.75+Math.cos((query.anim_time) * 90 * 16) * -20"],
						"1.625": [20, -12.5, 23.75],
						"1.75": [20, -12.5, 28.75],
						"1.875": [20, -30, 30],
						"1.9583": [20, 3.5, 31.25],
						"2.0417": [20, -15, 31.25],
						"2.1667": [20, -20, 31.25],
						"2.3333": [20, -11.85, 31.25],
						"2.375": [20, -9, 31.25]
					},
					"position": {
						"0.9167": [0, 0, 0],
						"1.0": [-0.04125, 0.46907, -0.1791]
					}
				},
				"finger_right": {
					"rotation": [0, 0, -22.5]
				},
				"finger_right2": {
					"rotation": [0, 0, -22.5]
				},
				"finger_right3": {
					"rotation": [0, 0, -22.5]
				},
				"leg_left": {
					"rotation": {
						"0.0": [0, 0, 0],
						"0.2917": [0, -20, -2.5],
						"0.4167": [-5.68, -13.75, -2.5],
						"0.5833": [-32.36, -7.5, -2.5],
						"0.7083": [-40.5, 2.5, -2.5],
						"0.75": [-33.83, 2.5, -2.5],
						"0.8333": [-30.5, 2.5, -2.5]
					},
					"position": {
						"0.4167": [0, 0, 0],
						"0.5833": [0, 0, -0.75],
						"1.5833": [0, 0, -0.75],
						"1.625": [1.25, 0, -0.75],
						"1.75": [0, 0, 0]
					}
				},
				"leg_right": {
					"rotation": {
						"0.0": [0, 0, 0],
						"0.2917": [0, -5, 2.5],
						"0.4167": [0.68, -1.25, 2.5],
						"0.5833": [-25.14, 17.5, 2.5],
						"0.7083": [-32, 20, 2.5],
						"0.75": [-28.33, 20, 2.5],
						"0.8333": [-27, 20, 2.5]
					},
					"position": {
						"0.4167": [0, 0, 0],
						"0.5833": [-0.5, 0, 0],
						"1.5833": [-0.5, 0, 0],
						"1.625": [-1.5, 0, 0],
						"1.75": [-0.5, 0, 0]
					}
				},
				"arm_hammer_left": {
					"rotation": {
						"0.0": [0, 0, 17.5],
						"0.25": [0, -25, 5],
						"0.4167": [0, -32.5, 3.5],
						"0.5": [-11.25, 40.75, -16.75],
						"0.5833": [-22.5, 46.75, -37],
						"0.7083": [-25, 44, -40.75]
					}
				}
			}
		},
		"animation.tinkatink.blink": {
			"animation_length": 0.16667,
			"bones": {
				"eyelid_right": {
					"position": {
						"0.0": [0, 0, -0.1],
						"0.125": [0, 0, -0.1],
						"0.1667": [0, 0, 0]
					}
				},
				"eyelid_left": {
					"position": {
						"0.0": [0, 0, -0.1],
						"0.125": [0, 0, -0.1],
						"0.1667": [0, 0, 0]
					}
				}
			}
		},
		"animation.tinkatink.cry": {
			"animation_length": 1.5,
			"bones": {
				"neck": {
					"rotation": {
						"0.0": [0, 0, 0],
						"0.25": [10, 0, 0],
						"1.25": [10, 0, 0],
						"1.5": [0, 0, 0]
					}
				},
				"mouth": {
					"position": {
						"0.0": [0, 0, 0],
						"0.25": [0, -2, 0],
						"1.25": [0, -2, 0],
						"1.5": [0, 0, 0]
					}
				},
				"mouth2": {
					"position": {
						"0.0": [0, 0, 0],
						"0.25": [0, -5, 0],
						"1.25": [0, -5, 0],
						"1.5": [0, 0, 0]
					}
				},
				"jaw": {
					"position": {
						"0.0": [0, 0, 0],
						"0.25": [0, -3, 0],
						"1.25": [0, -3, 0],
						"1.5": [0, 0, 0]
					}
				},
				"head": {
					"rotation": {
						"0.0": [0, 0, 0],
						"0.25": [-15, 0, 0],
						"1.25": [-15, 0, 0],
						"1.5": [0, 0, 0]
					}
				},
				"head2": {
					"rotation": {
						"0.0": [0, 0, 0],
						"0.25": [-15, 0, 0],
						"1.25": [-15, 0, 0],
						"1.5": [0, 0, 0]
					}
				},
				"mouth_closed2": {
					"position": {
						"0.25": [0, 0, -0.1],
						"0.3333": [0, 0, 0],
						"1.1667": [0, 0, 0],
						"1.25": [0, 0, -0.1]
					}
				},
				"mouth_open2": {
					"position": {
						"0.0": [0, 0, 0.1],
						"0.25": [0, 0, 0],
						"1.25": [0, 0, 0],
						"1.5": [0, 0, 0.1]
					}
				},
				"head3": {
					"rotation": {
						"0.0": [0, 0, 0],
						"0.25": [-15, 0, 0],
						"1.25": [-15, 0, 0],
						"1.5": [0, 0, 0]
					}
				},
				"mouth_closed3": {
					"position": {
						"0.25": [0, 0, -0.1],
						"0.3333": [0, 0, 0],
						"1.1667": [0, 0, 0],
						"1.25": [0, 0, -0.1]
					}
				},
				"mouth_open3": {
					"position": {
						"0.0": [0, 0, 0.1],
						"0.25": [0, 0, 0],
						"1.25": [0, 0, 0],
						"1.5": [0, 0, 0.1]
					}
				},
				"mouth_open": {
					"position": {
						"0.0833": [0, 0, 0],
						"0.1667": [0, 0, -0.15],
						"1.25": [0, 0, -0.15],
						"1.3333": [0, 0, 0]
					}
				},
				"arm_left": {
					"rotation": {
						"0.0": [0, 0, 0],
						"0.1667": [0, 0, "-24.575+Math.cos((query.anim_time) * 90 * 16) * 8"],
						"0.3333": [0, 0, "-30+Math.cos((query.anim_time) * 90 * 16) * 8"],
						"1.0": [0, 0, "-30+Math.cos((query.anim_time) * 90 * 16) * 8"],
						"1.25": [0, 0, -2.4],
						"1.5": [0, 0, 0]
					}
				},
				"arm_right": {
					"rotation": {
						"0.0": [0, 0, 0],
						"0.1667": [0, 0, "24.575+Math.cos((query.anim_time) * 90 * 16) * -8"],
						"0.3333": [0, 0, "30+Math.cos((query.anim_time) * 90 * 16) * -8"],
						"1.0": [0, 0, "30+Math.cos((query.anim_time) * 90 * 16) * -8"],
						"1.25": [0, 0, 2.4],
						"1.5": [0, 0, 0]
					}
				},
				"arm_hammer_left": {
					"rotation": {
						"0.0": [0, 0, 0],
						"0.1667": [0, 0, "-24.575+Math.cos((query.anim_time) * 90 * 16) * 8"],
						"0.3333": [0, 0, "-30+Math.cos((query.anim_time) * 90 * 16) * 8"],
						"1.0": [0, 0, "-30+Math.cos((query.anim_time) * 90 * 16) * 8"],
						"1.25": [0, 0, -2.4],
						"1.5": [0, 0, 0]
					}
				}
			}
		},
		"animation.tinkatink.shoulder_right": {
			"loop": true,
			"bones": {
				"body": {
					"position": [0, -0.5, 0]
				},
				"torso": {
					"rotation": ["-10+Math.cos((query.anim_time) * 90 * 2 - 90) * -1", 0, 0],
					"position": [0, "-0.25+Math.cos((query.anim_time) * 90 * 2) * 0.1", 0.5]
				},
				"head": {
					"rotation": ["10+Math.cos((query.anim_time) * 90 * 2 - 45) * 2", 0, 0]
				},
				"hair": {
					"rotation": ["0+Math.cos((query.anim_time) * 90 * 2 - 130) * 4", -20, 0]
				},
				"arm_hammer_left": {
					"rotation": [0, 47.5, 47.5]
				},
				"hammer": {
					"rotation": [155, 0, 35]
				},
				"arm_left": {
					"rotation": [0, 47.5, 47.5]
				},
				"arm_right": {
					"rotation": [-7.5, -60, -10]
				},
				"finger_right": {
					"rotation": [0, 0, -17.5]
				},
				"finger_right2": {
					"rotation": [0, 0, -15]
				},
				"finger_right3": {
					"rotation": [0, 0, -32.5]
				},
				"leg_left": {
					"rotation": [-15, -17.5, 0],
					"position": [0, 0, -0.75]
				},
				"leg_right": {
					"rotation": [-15, 17.5, 0],
					"position": [0, 0, -0.75]
				}
			}
		},
		"animation.tinkatink.shoulder_left": {
			"loop": true,
			"bones": {
				"body": {
					"position": [0, -0.5, 0]
				},
				"torso": {
					"rotation": ["-10+Math.cos((query.anim_time) * 90 * 2 - 90) * -1", 0, 0],
					"position": [0, "-0.25+Math.cos((query.anim_time) * 90 * 2) * 0.1", 0.5]
				},
				"head": {
					"rotation": ["10+Math.cos((query.anim_time) * 90 * 2 - 45) * 2", 0, 0]
				},
				"hair": {
					"rotation": ["0+Math.cos((query.anim_time) * 90 * 2 - 130) * 4", 20, 0]
				},
				"arm_hammer_left": {
					"rotation": [0, 47.5, 47.5]
				},
				"hammer": {
					"rotation": [155, 0, -35]
				},
				"arm_left": {
					"rotation": [-7.5, 60, 10]
				},
				"arm_right": {
					"rotation": [0, -47.5, -47.5]
				},
				"finger_right": {
					"rotation": [0, 0, -17.5]
				},
				"finger_right2": {
					"rotation": [0, 0, -15]
				},
				"finger_right3": {
					"rotation": [0, 0, -32.5]
				},
				"leg_left": {
					"rotation": [-15, -17.5, 0],
					"position": [0, 0, -0.75]
				},
				"leg_right": {
					"rotation": [-15, 17.5, 0],
					"position": [0, 0, -0.75]
				},
				"hammer2": {
					"rotation": [153.86299, 35.68332, -70.28087],
					"position": [-2.53839, -3.06428, 0.23466]
				},
				"finger_left": {
					"rotation": [0, 0, 17.5]
				},
				"finger_left2": {
					"rotation": [0, 0, 15]
				},
				"finger_left3": {
					"rotation": [0, 0, 32.5]
				}
			}
		}
	}
}